Aligning bird COI data
…
Take a quick look at the object.

Step 2. Importing sample information

Notice that we are halfway with our final goal: we have the code and sequences, now we need the island and species information. For that, we will import the spreadshet we use to keep track of our samples. This spreadsheet has all the information of our samples, and we will match that information to our sequences based on the code.

We downloaded our spreadsheet from Google Sheets in the CSV format and then renamed it to bird_specimens. Finally, we uploaded it to this project in the cloud (location data/bird/). We can then use one of the tidyverse function, read_csv(), to import the spreadsheet. We will for now save it to an object called info (we are trying to keep our object names short just so we can type it out faster)

info <- read_csv('data/bird/bird_specimens.csv')

If we call this object, we get a shortened view of the content in the spreadsheet. We can use that to check if everything looks okay…

info

# A tibble: 286 × 30
   museum box      loc_box tissue island longitude latitude type  code  binomial
   <chr>  <chr>    <chr>   <chr>  <chr>      <dbl>    <dbl> <chr> <chr> <chr>   
 1 lebi   role-fi… A1      B001   arari…     -39.3    -7.37 musc… RB1   Synalla…
 2 lebi   role-fi… B1      B013   arari…     -39.3    -7.37 musc… RB10  Cnemotr…
 3 lebi   role-fi… C1      B137   ubaja…     -40.9    -3.84 <NA>  RB100 Synalla…
 4 CAHZ   role-lo… A1      TCAHZ… areia      -35.7    -6.97 <NA>  RB143 Basileu…
 5 lebi   role-fi… C3      B141   ubaja…     -40.9    -3.84 <NA>  RB102 Pheugop…
 6 lebi   role-fi… C4      B142   ubaja…     -40.9    -3.84 <NA>  RB103 Taraba …
 7 lebi   role-fi… C5      B146   ubaja…     -40.9    -3.84 <NA>  RB104 Pheugop…
 8 lebi   role-fi… C6      B148   ubaja…     -40.9    -3.84 <NA>  RB105 Synalla…
 9 lebi   role-fi… C7      B154   batur…     -38.9    -4.26 musc… RB106 Arremon…
10 lebi   role-fi… C8      B156   batur…     -38.9    -4.26 <NA>  RB107 Sclerur…
# ℹ 276 more rows
# ℹ 20 more variables: Notes <chr>, person <chr>, next_step <chr>,
#   total_dna_amount <dbl>, extr_date_dna1 <chr>, dna1_qubit_date <date>,
#   `dna_1_ng/µl` <dbl>, dna_1_tot_µl <dbl>, dna_1_gel <chr>,
#   dna_1_gelfile <chr>, dna_1_loc <chr>, gel_ext_notes <chr>,
#   extr_date_dna2 <chr>, reextr_loc <chr>, pcr_date <chr>, pcr_date_2 <chr>,
#   pcr_gelfile <chr>, pcr_gelfile_2 <chr>, loc_in_box <chr>, …
…
